mastermind.vcd
$date
	Thu Jan 01 21:48:43 2026
$end
$version
	Icarus Verilog
$end
$timescale
	1ps
$end
$scope module tb_mastermind $end
$var wire 2 ! scoreB_disp [1:0] $end
$var wire 2 " scoreA_disp [1:0] $end
$var wire 2 # round_count_disp [1:0] $end
$var wire 12 $ leds_debug [11:0] $end
$var wire 8 % led_feedback [7:0] $end
$var reg 3 & SW [2:0] $end
$var reg 1 ' clk $end
$var reg 1 ( enterA $end
$var reg 1 ) enterB $end
$var reg 1 * reset $end
$scope module uut $end
$var wire 3 + SW [2:0] $end
$var wire 1 ' clk $end
$var wire 1 ( enterA $end
$var wire 1 ) enterB $end
$var wire 12 , leds_debug [11:0] $end
$var wire 1 * reset $end
$var wire 2 - round_count_disp [1:0] $end
$var wire 2 . scoreA_disp [1:0] $end
$var wire 2 / scoreB_disp [1:0] $end
$var wire 2 0 updated_rounds [1:0] $end
$var wire 2 1 updated_ptB [1:0] $end
$var wire 2 2 updated_ptA [1:0] $end
$var wire 1 3 start_take_code $end
$var wire 1 4 start_started $end
$var wire 1 5 start_clearRegs $end
$var wire 1 6 start_active_p $end
$var wire 12 7 secret_code [11:0] $end
$var wire 1 8 round_restart $end
$var wire 1 9 maker_take_code $end
$var wire 1 : maker_started $end
$var wire 1 ; maker_active_p $end
$var wire 8 < led_feedback [7:0] $end
$var wire 1 = is_game_over $end
$var wire 2 > current_round [1:0] $end
$var wire 1 ? breaker_pickB $end
$var wire 1 @ breaker_pickA $end
$var wire 12 A breaker_guess [11:0] $end
$var wire 1 B breaker_codeMaker $end
$var wire 1 C breaker_LED_Proc $end
$var parameter 3 D ST_BREAKER $end
$var parameter 3 E ST_FINISH $end
$var parameter 3 F ST_MAKER $end
$var parameter 3 G ST_START $end
$var reg 3 H main_state [2:0] $end
$var reg 1 I next_maker $end
$var reg 3 J next_state [2:0] $end
$var reg 1 K playerA_is_maker $end
$scope module BREAKER_UNIT $end
$var wire 3 L SW [2:0] $end
$var wire 1 ' clk $end
$var wire 1 M codeBreaker $end
$var wire 1 ( enterA $end
$var wire 1 ) enterB $end
$var wire 1 N player_A $end
$var wire 1 K player_B $end
$var wire 1 * reset $end
$var wire 2 O round_counter [1:0] $end
$var wire 2 P init_ptB [1:0] $end
$var wire 2 Q init_ptA [1:0] $end
$var wire 12 R codemaker_code [11:0] $end
$var parameter 4 S A_lostRound $end
$var parameter 4 T B_lostRound $end
$var parameter 4 U IDLE $end
$var parameter 4 V LEDproc_A $end
$var parameter 4 W LEDproc_B $end
$var parameter 4 X lifeA $end
$var parameter 4 Y lifeB $end
$var parameter 4 Z ptToA $end
$var parameter 4 [ ptToB $end
$var parameter 4 \ tryA $end
$var parameter 4 ] tryB $end
$var reg 1 C LED_Proc $end
$var reg 4 ^ cState [3:0] $end
$var reg 1 B codeMaker $end
$var reg 12 _ codebreaker_code [11:0] $end
$var reg 3 ` delay_timer [2:0] $end
$var reg 3 a letters_inputed [2:0] $end
$var reg 3 b lives_counter [2:0] $end
$var reg 4 c nState [3:0] $end
$var reg 1 @ pickPlayerA $end
$var reg 1 ? pickPlayerB $end
$var reg 2 d pointsOfA [1:0] $end
$var reg 2 e pointsOfB [1:0] $end
$var reg 2 f updated_round_counter [1:0] $end
$upscope $end
$scope module MAKER_UNIT $end
$var wire 3 g SW [2:0] $end
$var wire 1 ' clk $end
$var wire 1 h codeMaker $end
$var wire 1 ( enterA $end
$var wire 1 ) enterB $end
$var wire 1 K player_A $end
$var wire 1 i player_B $end
$var wire 1 * reset $end
$var parameter 2 j DONE $end
$var parameter 2 k IDLE $end
$var parameter 2 l PA $end
$var parameter 2 m PB $end
$var reg 1 ; active_p $end
$var reg 3 n ct1 [2:0] $end
$var reg 1 : started $end
$var reg 2 o state [1:0] $end
$var reg 1 9 take_code $end
$var reg 12 p toR1 [11:0] $end
$upscope $end
$scope module ROUND_UNIT $end
$var wire 2 q CountA [1:0] $end
$var wire 2 r CountB [1:0] $end
$var wire 1 ' clk $end
$var wire 1 s reset $end
$var wire 1 B round_done $end
$var reg 2 t Round [1:0] $end
$var reg 1 8 restartgame $end
$upscope $end
$scope module START_UNIT $end
$var wire 1 ' clk $end
$var wire 1 ( enterA $end
$var wire 1 ) enterB $end
$var wire 1 * reset $end
$var parameter 2 u PA $end
$var parameter 2 v PB $end
$var parameter 2 w start $end
$var reg 1 6 active_p $end
$var reg 1 5 clearRegs $end
$var reg 2 x nextstate [1:0] $end
$var reg 1 4 started $end
$var reg 2 y state [1:0] $end
$var reg 1 3 take_code $end
$upscope $end
$scope module U_LED_FEEDBACK $end
$var wire 1 ' clk $end
$var wire 1 = game_over $end
$var wire 12 z guess_val [11:0] $end
$var wire 1 * reset $end
$var wire 12 { secret_val [11:0] $end
$var wire 3 | s3 [2:0] $end
$var wire 3 } s2 [2:0] $end
$var wire 3 ~ s1 [2:0] $end
$var wire 3 !" s0 [2:0] $end
$var wire 3 "" g3 [2:0] $end
$var wire 3 #" g2 [2:0] $end
$var wire 3 $" g1 [2:0] $end
$var wire 3 %" g0 [2:0] $end
$var parameter 32 &" BLINK_SPEED $end
$var reg 1 '" blink_state $end
$var reg 8 (" leds [7:0] $end
$var reg 8 )" match_pattern [7:0] $end
$var reg 26 *" timer [25:0] $end
$upscope $end
$upscope $end
$upscope $end
$enddefinitions $end
$comment Show the parameter values. $end
$dumpall
b100 &"
b0 w
b10 v
b1 u
b10 m
b1 l
b0 k
b11 j
b111 ]
b10 \
b1000 [
b11 Z
b110 Y
b1 X
b1001 W
b100 V
b0 U
b1010 T
b101 S
b0 G
b1 F
b11 E
b10 D
$end
#0
$dumpvars
bx *"
bx )"
bx ("
x'"
bx %"
bx $"
bx #"
bx ""
bx !"
bx ~
bx }
bx |
bx {
bx z
bx y
bx x
bx t
xs
bx r
bx q
bx p
bx o
bx n
xi
xh
b0 g
bx f
bx e
bx d
bx c
bx b
bx a
bx `
bx _
bx ^
bx R
bx Q
bx P
bx O
xN
xM
b0 L
xK
bx J
xI
bx H
xC
xB
bx A
x@
x?
bx >
x=
bx <
x;
x:
x9
x8
bx 7
x6
x5
x4
x3
bx 2
bx 1
bx 0
bx /
bx .
bx -
bx ,
b0 +
1*
0)
0(
0'
b0 &
bx %
bx $
bx #
bx "
bx !
$end
#5000
b0 J
0:
09
0;
0?
0C
0@
0B
b0 c
b0 o
b0 `
bx ^
b0 *"
1'"
1'
#10000
0'
#15000
0h
0M
0=
b0 H
b0 ^
b0 n
1'
#20000
0'
#25000
b0 %
b0 <
b0 ("
b0 )"
b0 ""
b0 #"
b0 $"
b0 %"
b0 A
b0 _
b0 z
b0 a
b11 b
1'
#30000
0'
#35000
1'
#40000
0'
#45000
1'
#50000
b11111111 %
b11111111 <
b11111111 ("
b11111111 )"
08
1I
b0 |
b0 }
b0 ~
b0 !"
05
03
06
04
b0 x
b0 #
b0 -
b0 >
b0 O
b0 t
0i
0N
1K
0'"
b0 !
b0 /
b0 1
b0 P
b0 e
b0 r
b0 "
b0 .
b0 2
b0 Q
b0 d
b0 q
b0 0
b0 f
b0 b
b0 $
b0 ,
b0 7
b0 R
b0 p
b0 {
b0 y
0s
0'
0*
#55000
1'
#60000
0'
#65000
1'
#70000
0'
#75000
1'
#80000
0'
#85000
1'
#90000
0'
#95000
1'
#100000
1s
0'
1*
#105000
1'"
b11 b
1'
#110000
0'
#115000
1'
#120000
0'
#125000
1'
#130000
0'
#135000
1'
#140000
0'
#145000
1'
#150000
b1 x
0'
1(
#155000
b1 J
14
13
b1 y
1'
#160000
0'
0(
#165000
1h
b1 H
1'
#170000
0'
#175000
19
b1 o
1'
#180000
0'
b100 &
b100 +
b100 L
b100 g
#185000
1'
#190000
0'
1(
#195000
b11111101 %
b11111101 <
b11111101 ("
b11111101 )"
b100 !"
b1 n
b100 $
b100 ,
b100 7
b100 R
b100 p
b100 {
1'
#200000
0'
0(
#205000
1'
#210000
0'
#215000
1'
#220000
0'
b1 &
b1 +
b1 L
b1 g
#225000
1'
#230000
0'
1(
#235000
b11110101 %
b11110101 <
b11110101 ("
b11110101 )"
b100 ~
b1 !"
b10 n
b100001 $
b100001 ,
b100001 7
b100001 R
b100001 p
b100001 {
1'
#240000
0'
0(
#245000
1'
#250000
0'
#255000
1'
#260000
0'
b10 &
b10 +
b10 L
b10 g
#265000
1'
#270000
0'
1(
#275000
b11010101 %
b11010101 <
b11010101 ("
b11010101 )"
b100 }
b1 ~
b10 !"
b11 n
b100001010 $
b100001010 ,
b100001010 7
b100001010 R
b100001010 p
b100001010 {
1'
#280000
0'
0(
#285000
1'
#290000
0'
#295000
1'
#300000
0'
b11 &
b11 +
b11 L
b11 g
#305000
1'
#310000
0'
1(
#315000
b0 %
b0 <
b0 ("
b0 )"
b100 |
b1 }
b10 ~
b11 !"
b100 n
b100001010011 $
b100001010011 ,
b100001010011 7
b100001010011 R
b100001010011 p
b100001010011 {
1'
#320000
0'
0(
#325000
b10 J
1:
09
b0 n
b11 o
1'
#330000
0'
#335000
b110 c
0h
1M
b10 H
1'
#340000
0'
#345000
0:
b110 ^
b0 o
1'
#350000
0'
#355000
b1 `
1'
#360000
0'
#365000
b10 `
1'
#370000
0'
#375000
b111 c
b11 `
1'
#380000
0'
#385000
b100 `
b111 ^
1'
#390000
0'
#395000
b0 `
1'
#400000
0'
#405000
1'
#410000
0'
#415000
1'
#420000
0'
#425000
1'
#430000
0'
#435000
1'
#440000
0'
#445000
1'
#450000
0'
#455000
1'
#460000
0'
#465000
1'
#470000
0'
#475000
1'
#480000
0'
#485000
1'
#490000
0'
#495000
1'
#500000
0'
#505000
1'
#510000
0'
#515000
1'
#520000
0'
#525000
1'
#530000
0'
#535000
1'
#540000
0'
b100 &
b100 +
b100 L
b100 g
#545000
1'
#550000
0'
1)
#555000
b1 %
b1 <
b1 ("
b1 )"
b100 %"
b1 a
b100 A
b100 _
b100 z
1'
#560000
0'
0)
#565000
1'
#570000
0'
#575000
1'
#580000
0'
b1 &
b1 +
b1 L
b1 g
#585000
1'
#590000
0'
1)
#595000
b101 %
b101 <
b101 ("
b101 )"
b100 $"
b1 %"
b10 a
b100001 A
b100001 _
b100001 z
1'
#600000
0'
0)
#605000
1'
#610000
0'
#615000
1'
#620000
0'
b10 &
b10 +
b10 L
b10 g
#625000
1'
#630000
0'
1)
#635000
b10101 %
b10101 <
b10101 ("
b10101 )"
b100 #"
b1 $"
b10 %"
b11 a
b100001010 A
b100001010 _
b100001010 z
1'
#640000
0'
0)
#645000
1'
#650000
0'
#655000
1'
#660000
0'
b11 &
b11 +
b11 L
b11 g
#665000
1'
#670000
0'
1)
#675000
b11111111 %
b11111111 <
b11111111 ("
b11111111 )"
b1000 c
b100 ""
b1 #"
b10 $"
b11 %"
b100 a
b100001010011 A
b100001010011 _
b100001010011 z
1'
#680000
0'
0)
#685000
1?
1B
1C
b1000 ^
1'
#690000
0'
#695000
0?
1C
0B
b1 `
b1 0
b1 f
b1 !
b1 /
b1 1
b1 P
b1 e
b1 r
b1 #
b1 -
b1 >
b1 O
b1 t
1'
#700000
0'
#705000
1C
b10 `
1'
#710000
0'
#715000
1C
b0 c
b11 `
1'
#720000
0'
#725000
0C
b110 c
b100 `
b0 ^
1'
#730000
0'
#735000
b0 %
b0 <
b0 ("
b0 )"
b0 ""
b0 #"
b0 $"
b0 %"
b0 `
b110 ^
b0 A
b0 _
b0 z
b0 a
1'
#740000
0'
#745000
b1 `
1'
#750000
0'
#755000
b10 `
1'
#760000
0'
#765000
b111 c
b11 `
1'
#770000
0'
#775000
b100 `
b111 ^
1'
#780000
0'
#785000
b0 `
1'
#790000
0'
#795000
1'
#800000
0'
#805000
1'
#810000
0'
#815000
1'
#820000
0'
#825000
1'
#830000
0'
#835000
1'
#840000
0'
#845000
1'
#850000
0'
#855000
1'
#860000
0'
#865000
1'
#870000
0'
#875000
1'
#880000
0'
#885000
1'
#890000
0'
#895000
1'
#900000
0'
b111 &
b111 +
b111 L
b111 g
#905000
1'
#910000
0'
1)
#915000
b111 %"
b1 a
b111 A
b111 _
b111 z
1'
#920000
0'
0)
#925000
1'
#930000
0'
#935000
1'
#940000
0'
#945000
1'
#950000
0'
1)
#955000
b111 $"
b10 a
b111111 A
b111111 _
b111111 z
1'
#960000
0'
0)
#965000
1'
#970000
0'
#975000
1'
#980000
0'
#985000
1'
#990000
0'
1)
#995000
b111 #"
b11 a
b111111111 A
b111111111 _
b111111111 z
1'
#1000000
0'
0)
#1005000
1'
#1010000
0'
#1015000
1'
#1020000
0'
#1025000
1'
#1030000
0'
1)
#1035000
b1001 c
b111 ""
b100 a
b111111111111 A
b111111111111 _
b111111111111 z
1'
#1040000
0'
0)
#1045000
1C
b110 c
b1001 ^
1'
#1050000
0'
#1055000
0C
b110 ^
b10 b
1'
#1060000
0'
#1065000
b0 ""
b0 #"
b0 $"
b0 %"
b0 A
b0 _
b0 z
b0 a
b1 `
1'
#1070000
0'
#1075000
b10 `
1'
#1080000
0'
#1085000
b111 c
b11 `
1'
#1090000
0'
#1095000
b100 `
b111 ^
1'
#1100000
0'
#1105000
b0 `
1'
#1110000
0'
#1115000
1'
#1120000
0'
#1125000
1'
#1130000
0'
#1135000
1'
#1140000
0'
#1145000
1'
#1150000
0'
#1155000
1'
#1160000
0'
#1165000
1'
#1170000
0'
#1175000
1'
#1180000
0'
#1185000
1'
#1190000
0'
#1195000
1'
#1200000
0'
#1205000
1'
#1210000
0'
#1215000
1'
#1220000
0'
#1225000
1'
#1230000
0'
#1235000
1'
#1240000
0'
#1245000
1'
#1250000
0'
#1255000
1'
#1260000
0'
b1 &
b1 +
b1 L
b1 g
#1265000
1'
#1270000
0'
1(
#1275000
1'
#1280000
0'
0(
#1285000
1'
#1290000
0'
#1295000
1'
#1300000
0'
#1305000
1'
#1310000
0'
1(
#1315000
1'
#1320000
0'
0(
#1325000
1'
#1330000
0'
#1335000
1'
#1340000
0'
#1345000
1'
#1350000
0'
1(
#1355000
1'
#1360000
0'
0(
#1365000
1'
#1370000
0'
#1375000
1'
#1380000
0'
#1385000
1'
#1390000
0'
1(
#1395000
1'
#1400000
0'
0(
#1405000
1'
#1410000
0'
#1415000
1'
#1420000
0'
#1425000
1'
#1430000
0'
#1435000
1'
#1440000
0'
#1445000
1'
#1450000
0'
#1455000
1'
#1460000
0'
#1465000
1'
#1470000
0'
#1475000
1'
#1480000
0'
#1485000
1'
#1490000
0'
#1495000
1'
#1500000
0'
#1505000
1'
#1510000
0'
#1515000
1'
#1520000
0'
#1525000
1'
#1530000
0'
#1535000
1'
#1540000
0'
#1545000
1'
#1550000
0'
#1555000
1'
#1560000
0'
#1565000
1'
#1570000
0'
#1575000
1'
#1580000
0'
1(
#1585000
1'
#1590000
0'
0(
#1595000
1'
#1600000
0'
#1605000
1'
#1610000
0'
#1615000
1'
#1620000
0'
1(
#1625000
1'
#1630000
0'
0(
#1635000
1'
#1640000
0'
#1645000
1'
#1650000
0'
#1655000
1'
#1660000
0'
1(
#1665000
1'
#1670000
0'
0(
#1675000
1'
#1680000
0'
#1685000
1'
#1690000
0'
#1695000
1'
#1700000
0'
1(
#1705000
1'
#1710000
0'
0(
#1715000
1'
#1720000
0'
#1725000
1'
#1730000
0'
#1735000
1'
#1740000
0'
#1745000
1'
#1750000
0'
#1755000
1'
#1760000
0'
#1765000
1'
#1770000
0'
#1775000
1'
#1780000
0'
#1785000
1'
#1790000
0'
#1795000
1'
#1800000
0'
#1805000
1'
#1810000
0'
#1815000
1'
#1820000
0'
#1825000
1'
#1830000
0'
#1835000
1'
#1840000
0'
#1845000
1'
#1850000
0'
#1855000
1'
#1860000
0'
#1865000
1'
#1870000
0'
#1875000
1'
#1880000
0'
#1885000
1'
#1890000
0'
1(
#1895000
1'
#1900000
0'
0(
#1905000
1'
#1910000
0'
#1915000
1'
#1920000
0'
#1925000
1'
#1930000
0'
1(
#1935000
1'
#1940000
0'
0(
#1945000
1'
#1950000
0'
#1955000
1'
#1960000
0'
#1965000
1'
#1970000
0'
1(
#1975000
1'
#1980000
0'
0(
#1985000
1'
#1990000
0'
#1995000
1'
#2000000
0'
#2005000
1'
#2010000
0'
1(
#2015000
1'
#2020000
0'
0(
